<svg id="calendar-svgrepo-com" xmlns="http://www.w3.org/2000/svg" width="40" height="36" viewBox="0 0 40 36">
  <path id="Path_66" data-name="Path 66" d="M39.362,2.634H37.234V1.976a1.916,1.916,0,1,0-3.83,0v.659H27.021V1.976a1.916,1.916,0,1,0-3.83,0v.659H16.809V1.976a1.916,1.916,0,1,0-3.83,0v.659H6.6V1.976A1.948,1.948,0,0,0,4.681,0,1.948,1.948,0,0,0,2.766,1.976v.659H.638A.649.649,0,0,0,0,3.293V35.341A.649.649,0,0,0,.638,36H39.362A.649.649,0,0,0,40,35.341V3.293A.649.649,0,0,0,39.362,2.634Zm-4.681-.659a.639.639,0,1,1,1.277,0V4.61a.639.639,0,1,1-1.277,0Zm-10.213,0a.639.639,0,1,1,1.277,0V4.61a.639.639,0,1,1-1.277,0Zm-10.213,0a.639.639,0,1,1,1.277,0V4.61a.639.639,0,1,1-1.277,0Zm-10.213,0a.639.639,0,1,1,1.277,0V4.61a.639.639,0,1,1-1.277,0ZM2.766,3.951V4.61A1.948,1.948,0,0,0,4.681,6.585,1.948,1.948,0,0,0,6.6,4.61V3.951h6.383V4.61a1.916,1.916,0,1,0,3.83,0V3.951h6.383V4.61a1.916,1.916,0,1,0,3.83,0V3.951H33.4V4.61a1.916,1.916,0,1,0,3.83,0V3.951h1.489v6.787H1.277V3.951ZM1.277,34.683V12.056H38.723V34.683Z" fill="#4e8b96"/>
  <path id="Path_67" data-name="Path 67" d="M377.881,226.8h-2.7a.676.676,0,1,0,0,1.352h2.7a.676.676,0,1,0,0-1.352Z" transform="translate(-343.11 -206.906)" fill="#4e8b96"/>
  <path id="Path_68" data-name="Path 68" d="M296.881,226.8h-2.7a.676.676,0,0,0,0,1.352h2.7a.676.676,0,1,0,0-1.352Z" transform="translate(-268.678 -206.906)" fill="#4e8b96"/>
  <path id="Path_69" data-name="Path 69" d="M215.881,226.8h-2.7a.676.676,0,0,0,0,1.352h2.7a.676.676,0,0,0,0-1.352Z" transform="translate(-194.529 -206.906)" fill="#4e8b96"/>
  <path id="Path_70" data-name="Path 70" d="M134.881,226.8h-2.7a.676.676,0,1,0,0,1.352h2.7a.676.676,0,0,0,0-1.352Z" transform="translate(-120.379 -206.906)" fill="#4e8b96"/>
  <path id="Path_71" data-name="Path 71" d="M53.881,226.8h-2.7a.676.676,0,1,0,0,1.352h2.7a.676.676,0,0,0,0-1.352Z" transform="translate(-45.947 -206.906)" fill="#4e8b96"/>
  <path id="Path_72" data-name="Path 72" d="M296.881,280.8h-2.7a.676.676,0,0,0,0,1.352h2.7a.676.676,0,0,0,0-1.352Z" transform="translate(-268.678 -256.17)" fill="#4e8b96"/>
  <path id="Path_73" data-name="Path 73" d="M215.881,280.8h-2.7a.676.676,0,0,0,0,1.352h2.7a.676.676,0,0,0,0-1.352Z" transform="translate(-194.529 -256.17)" fill="#4e8b96"/>
  <path id="Path_74" data-name="Path 74" d="M134.881,280.8h-2.7a.676.676,0,1,0,0,1.352h2.7a.676.676,0,0,0,0-1.352Z" transform="translate(-120.379 -256.17)" fill="#4e8b96"/>
  <path id="Path_75" data-name="Path 75" d="M53.881,280.8h-2.7a.676.676,0,0,0,0,1.352h2.7a.676.676,0,0,0,0-1.352Z" transform="translate(-45.947 -256.17)" fill="#4e8b96"/>
  <path id="Path_76" data-name="Path 76" d="M296.881,334.8h-2.7a.676.676,0,0,0,0,1.352h2.7a.676.676,0,0,0,0-1.352Z" transform="translate(-268.678 -305.58)" fill="#4e8b96"/>
  <path id="Path_77" data-name="Path 77" d="M377.881,280.8h-2.7a.676.676,0,1,0,0,1.352h2.7a.676.676,0,0,0,0-1.352Z" transform="translate(-343.11 -256.17)" fill="#4e8b96"/>
  <path id="Path_78" data-name="Path 78" d="M377.881,334.8h-2.7a.676.676,0,1,0,0,1.352h2.7a.676.676,0,0,0,0-1.352Z" transform="translate(-343.11 -305.58)" fill="#4e8b96"/>
  <path id="Path_79" data-name="Path 79" d="M215.881,334.8h-2.7a.676.676,0,0,0,0,1.352h2.7a.676.676,0,0,0,0-1.352Z" transform="translate(-194.529 -305.58)" fill="#4e8b96"/>
  <path id="Path_80" data-name="Path 80" d="M134.881,334.8h-2.7a.676.676,0,1,0,0,1.352h2.7a.676.676,0,0,0,0-1.352Z" transform="translate(-120.379 -305.58)" fill="#4e8b96"/>
  <path id="Path_81" data-name="Path 81" d="M53.881,334.8h-2.7a.676.676,0,0,0,0,1.352h2.7a.676.676,0,0,0,0-1.352Z" transform="translate(-45.947 -305.58)" fill="#4e8b96"/>
  <path id="Path_82" data-name="Path 82" d="M377.881,172.8h-2.7a.676.676,0,1,0,0,1.352h2.7a.676.676,0,1,0,0-1.352Z" transform="translate(-343.11 -157.643)" fill="#4e8b96"/>
  <path id="Path_83" data-name="Path 83" d="M296.881,172.8h-2.7a.676.676,0,1,0,0,1.352h2.7a.676.676,0,1,0,0-1.352Z" transform="translate(-268.678 -157.643)" fill="#4e8b96"/>
  <path id="Path_84" data-name="Path 84" d="M215.881,172.8h-2.7a.676.676,0,1,0,0,1.352h2.7a.676.676,0,1,0,0-1.352Z" transform="translate(-194.529 -157.643)" fill="#4e8b96"/>
  <path id="Path_85" data-name="Path 85" d="M134.881,172.8h-2.7a.676.676,0,1,0,0,1.352h2.7a.676.676,0,0,0,0-1.352Z" transform="translate(-120.379 -157.643)" fill="#4e8b96"/>
  <path id="Path_86" data-name="Path 86" d="M53.881,172.8h-2.7a.676.676,0,1,0,0,1.352h2.7a.676.676,0,1,0,0-1.352Z" transform="translate(-45.947 -157.643)" fill="#4e8b96"/>
</svg>
