<svg id="Group_82" data-name="Group 82" xmlns="http://www.w3.org/2000/svg" width="70.588" height="17.396" viewBox="0 0 70.588 17.396">
  <line id="Line_2" data-name="Line 2" x2="21.076" transform="translate(0 9.033)" fill="none" stroke="#fff" stroke-width="1" stroke-dasharray="2"/>
  <line id="Line_4" data-name="Line 4" x2="21.076" transform="translate(49.512 9.033)" fill="none" stroke="#fff" stroke-width="1" stroke-dasharray="2"/>
  <g id="ca" transform="translate(23.752)">
    <path id="Path_15" data-name="Path 15" d="M1391.218,132.82a4.124,4.124,0,0,1,4.124-4.12h-.018a4.122,4.122,0,0,0-.009,8.244h0A4.128,4.128,0,0,1,1391.218,132.82Z" transform="translate(-1391.2 -122.706)" fill="#fff"/>
    <path id="Path_16" data-name="Path 16" d="M1592.8,132.724a4.131,4.131,0,0,1-4.124,4.124H1579c.154-.177.308-.354.453-.526a32.17,32.17,0,0,0,4.65-7.2c.1-.227.177-.4.231-.526h4.346A4.121,4.121,0,0,1,1592.8,132.724Z" transform="translate(-1570.052 -122.61)" fill="#fff"/>
    <path id="Path_17" data-name="Path 17" d="M1482.591,78.983c-.073.168-.154.344-.245.526a37.515,37.515,0,0,1-2.914,4.813c-.6.861-1.215,1.663-1.808,2.384-.15.181-.3.358-.444.526-1.84,2.126-3.454,3.376-3.979,3.009-.381-.263-.122-1.328.58-2.819h.476c-.381.852-.5,1.432-.259,1.6.354.245,1.36-.48,2.588-1.795.154-.168.313-.34.476-.526a30.178,30.178,0,0,0,2.03-2.606A28.257,28.257,0,0,0,1481.8,79.5c.082-.19.15-.363.2-.526.208-.6.231-1.011.036-1.147-.281-.195-.934.213-1.781,1.033h-.621c1.55-1.632,2.842-2.493,3.308-2.171C1483.284,76.939,1483.125,77.778,1482.591,78.983Z" transform="translate(-1469.183 -72.908)" fill="#fff"/>
    <path id="Path_18" data-name="Path 18" d="M1403.8,128.6l-.245.526h-7.809a3.6,3.6,0,0,0-.14,7.188c.045,0,.1,0,.145,0h2.919l-.494.526h-2.38a4.122,4.122,0,0,1,.027-8.244Z" transform="translate(-1391.677 -122.61)" fill="#fff"/>
    <path id="Path_19" data-name="Path 19" d="M1482.027,310.6h0Z" transform="translate(-1477.885 -296.277)" fill="#fff" stroke="red" stroke-width="1"/>
    <path id="Path_20" data-name="Path 20" d="M1571.248,67.8a2.657,2.657,0,0,1-1.926-2.8A2.735,2.735,0,0,1,1571.248,67.8Z" transform="translate(-1561.064 -62.004)" fill="#fff"/>
    <path id="Path_21" data-name="Path 21" d="M1619.662,38.131a2.654,2.654,0,0,1,.657-3.331A2.736,2.736,0,0,1,1619.662,38.131Z" transform="translate(-1608.779 -33.223)" fill="#fff"/>
    <path id="Path_22" data-name="Path 22" d="M1586.7,3.091A2.466,2.466,0,0,1,1586.093,0,2.541,2.541,0,0,1,1586.7,3.091Z" transform="translate(-1576.774)" fill="#fff"/>
  </g>
</svg>
