<svg xmlns="http://www.w3.org/2000/svg" width="783" height="408" viewBox="0 0 783 408">
  <g id="Group_59" data-name="Group 59" transform="translate(-110 -1436)">
    <text id="More_About_Clinical_Services" data-name="More About Clinical Services" transform="translate(507 1460)" fill="#fff" font-size="30" font-family="Bahnschrift" font-weight="700"><tspan x="0" y="0">More About Clinical Services</tspan></text>
    <text id="Med-tech_classes:_Assistance_with_Self-Administration_of_Medication_BOTH_6_hours_for_new_med-techs_and_2_hours_for_renewal_of_med-tech_certificates_Medication_Cart_Audits_every_4_months_A_thorough_Drug_Utilization_Review_of_your_residents_medications_" data-name="Med-tech classes: Assistance with Self-Administration of Medication (BOTH 6 hours for new med-techs and 2 hours for renewal of med-tech certificates)

Medication Cart Audits every 4 months

A thorough Drug Utilization Review of your residents’ medications " transform="translate(156 1516)" fill="#fff" font-size="18" font-family="Bahnschrift" font-weight="300" letter-spacing="0.05em"><tspan x="0" y="14">Med-tech classes: Assistance with Self-Administration of Medication (BOTH </tspan><tspan x="0" y="36">6 hours for new med-techs and 2 hours for renewal of med-tech </tspan><tspan x="0" y="58">certificates)</tspan><tspan x="0" y="80"></tspan><tspan x="0" y="102">Medication Cart Audits every 4 months</tspan><tspan x="0" y="124"></tspan><tspan x="0" y="146">A thorough Drug Utilization Review of your residents’ medications to ensure </tspan><tspan x="0" y="168">optimal drug therapy</tspan><tspan x="0" y="190"></tspan><tspan x="0" y="212">In-house Vaccine clinics (COVID, Flu, Shingles, etc.)</tspan><tspan x="0" y="234"></tspan><tspan x="0" y="256">First Aid/CPR/AED (certified instructor by American Red Cross)</tspan><tspan x="0" y="278"></tspan><tspan x="0" y="300">Constant communication with your facility and your residents’ providers to </tspan><tspan x="0" y="322">support their health and well-being</tspan></text>
    <g id="SL-091319-23370-31_Converted_" data-name="SL-091319-23370-31 [Converted]" transform="translate(349.3 1613.351)">
      <path id="Path_23" data-name="Path 23" d="M-226.2-104.3v4.543L-211.95-89.3-226.2-78.843V-74.3l20.4-15Z" transform="translate(-7.505)" fill="#fff"/>
      <path id="Path_24" data-name="Path 24" d="M-239.3-93.9v21.159l14.864-10.6Z" transform="translate(0 -5.958)" fill="#fff"/>
    </g>
    <g id="SL-091319-23370-31_Converted_2" data-name="SL-091319-23370-31 [Converted]" transform="translate(349.3 1700.351)">
      <path id="Path_23-2" data-name="Path 23" d="M-226.2-104.3v4.543L-211.95-89.3-226.2-78.843V-74.3l20.4-15Z" transform="translate(-7.505)" fill="#fff"/>
      <path id="Path_24-2" data-name="Path 24" d="M-239.3-93.9v21.159l14.864-10.6Z" transform="translate(0 -5.958)" fill="#fff"/>
    </g>
    <g id="SL-091319-23370-31_Converted_3" data-name="SL-091319-23370-31 [Converted]" transform="translate(349.3 1745.3)">
      <path id="Path_23-3" data-name="Path 23" d="M-226.2-104.3v4.543L-211.95-89.3-226.2-78.843V-74.3l20.4-15Z" transform="translate(-7.505)" fill="#fff"/>
      <path id="Path_24-3" data-name="Path 24" d="M-239.3-93.9v21.159l14.864-10.6Z" transform="translate(0 -5.958)" fill="#fff"/>
    </g>
    <g id="SL-091319-23370-31_Converted_4" data-name="SL-091319-23370-31 [Converted]" transform="translate(349.3 1810.3)">
      <path id="Path_23-4" data-name="Path 23" d="M-226.2-104.3v4.543L-211.95-89.3-226.2-78.843V-74.3l20.4-15Z" transform="translate(-7.505)" fill="#fff"/>
      <path id="Path_24-4" data-name="Path 24" d="M-239.3-93.9v21.159l14.864-10.6Z" transform="translate(0 -5.958)" fill="#fff"/>
    </g>
    <g id="SL-091319-23370-31_Converted_5" data-name="SL-091319-23370-31 [Converted]" transform="translate(349.3 1855.3)">
      <path id="Path_23-5" data-name="Path 23" d="M-226.2-104.3v4.543L-211.95-89.3-226.2-78.843V-74.3l20.4-15Z" transform="translate(-7.505)" fill="#fff"/>
      <path id="Path_24-5" data-name="Path 24" d="M-239.3-93.9v21.159l14.864-10.6Z" transform="translate(0 -5.958)" fill="#fff"/>
    </g>
    <g id="SL-091319-23370-31_Converted_6" data-name="SL-091319-23370-31 [Converted]" transform="translate(349.3 1900.3)">
      <path id="Path_23-6" data-name="Path 23" d="M-226.2-104.3v4.543L-211.95-89.3-226.2-78.843V-74.3l20.4-15Z" transform="translate(-7.505)" fill="#fff"/>
      <path id="Path_24-6" data-name="Path 24" d="M-239.3-93.9v21.159l14.864-10.6Z" transform="translate(0 -5.958)" fill="#fff"/>
    </g>
    <g id="Group_58" data-name="Group 58" transform="translate(-6.5 686)">
      <line id="Line_2" data-name="Line 2" x2="105.912" transform="translate(570.5 797.5)" fill="none" stroke="#fff" stroke-width="1" stroke-dasharray="2"/>
      <line id="Line_3" data-name="Line 3" x2="105.912" transform="translate(724.5 796.5)" fill="none" stroke="#fff" stroke-width="1" stroke-dasharray="2"/>
      <g id="ca" transform="translate(-708.2 784)">
        <path id="Path_15" data-name="Path 15" d="M1391.227,134.857a6.163,6.163,0,0,1,6.164-6.157h-.027a6.161,6.161,0,0,0-.014,12.321h0A6.169,6.169,0,0,1,1391.227,134.857Z" transform="translate(0 -119.741)" fill="#fff"/>
        <path id="Path_16" data-name="Path 16" d="M1599.626,134.764a6.175,6.175,0,0,1-6.164,6.164H1579c.23-.264.46-.528.677-.786a48.083,48.083,0,0,0,6.95-10.757c.156-.339.264-.6.346-.786h6.5A6.159,6.159,0,0,1,1599.626,134.764Z" transform="translate(-174.426 -119.648)" fill="#fff"/>
        <path id="Path_17" data-name="Path 17" d="M1487.322,80.148c-.108.251-.23.515-.366.786a56.063,56.063,0,0,1-4.355,7.194c-.9,1.287-1.816,2.486-2.7,3.563-.224.271-.447.535-.664.786-2.75,3.177-5.162,5.046-5.947,4.5-.569-.393-.183-1.985.867-4.213h.711c-.569,1.273-.752,2.14-.386,2.391.528.366,2.032-.718,3.868-2.682.23-.251.468-.508.711-.786a45.1,45.1,0,0,0,3.035-3.895,42.243,42.243,0,0,0,4.044-6.862c.122-.285.224-.542.3-.786.312-.9.345-1.511.054-1.714-.42-.291-1.4.318-2.662,1.544h-.928c2.317-2.439,4.247-3.726,4.945-3.245C1488.358,77.093,1488.121,78.346,1487.322,80.148Z" transform="translate(-76.084 -71.069)" fill="#fff"/>
        <path id="Path_18" data-name="Path 18" d="M1409.785,128.6l-.366.786h-11.671a5.374,5.374,0,0,0-.21,10.743c.068,0,.142.007.217.007h4.362l-.738.786h-3.556a6.161,6.161,0,0,1,.041-12.321Z" transform="translate(-0.466 -119.648)" fill="#fff"/>
        <path id="Path_19" data-name="Path 19" d="M1482.041,310.6h0Z" transform="translate(-84.65 -289.193)" fill="#fff" stroke="red" stroke-width="1"/>
        <path id="Path_20" data-name="Path 20" d="M1572.207,69.179A3.972,3.972,0,0,1,1569.328,65,4.088,4.088,0,0,1,1572.207,69.179Z" transform="translate(-165.786 -60.522)" fill="#fff"/>
        <path id="Path_21" data-name="Path 21" d="M1619.825,39.779a3.966,3.966,0,0,1,.982-4.979A4.089,4.089,0,0,1,1619.825,39.779Z" transform="translate(-212.359 -32.443)" fill="#fff"/>
        <path id="Path_22" data-name="Path 22" d="M1587.165,4.62A3.686,3.686,0,0,1,1586.25,0,3.8,3.8,0,0,1,1587.165,4.62Z" transform="translate(-181.122)" fill="#fff"/>
      </g>
    </g>
  </g>
</svg>
