<svg xmlns="http://www.w3.org/2000/svg" width="105.912" height="1" viewBox="0 0 105.912 1">
  <line id="Line_2" data-name="Line 2" x2="105.912" transform="translate(0 0.5)" fill="none" stroke="#78ba46" stroke-width="1" stroke-dasharray="2"/>
</svg>
