<svg xmlns="http://www.w3.org/2000/svg" width="41.426" height="29.451" viewBox="0 0 41.426 29.451">
  <g id="mail" opacity="0.8">
    <g id="Group_71" data-name="Group 71" transform="translate(7.215 14.199)">
      <path id="Path_106" data-name="Path 106" d="M27.209,23.659a.662.662,0,0,1-.457-.182l-7.686-7.211a.668.668,0,1,1,.915-.972L27.667,22.5a.668.668,0,0,1-.458,1.154Z" transform="translate(-0.883 -15.111)" fill="#226f7c"/>
      <path id="Path_107" data-name="Path 107" d="M6.07,23.658A.668.668,0,0,1,5.612,22.5L13.3,15.293a.668.668,0,1,1,.915.972L6.527,23.477A.662.662,0,0,1,6.07,23.658Z" transform="translate(-5.402 -15.111)" fill="#226f7c"/>
    </g>
    <path id="Path_108" data-name="Path 108" d="M38.087,33.933H3.34A3.343,3.343,0,0,1,0,30.593V7.822a3.343,3.343,0,0,1,3.34-3.34H38.087a3.343,3.343,0,0,1,3.34,3.34V30.593A3.343,3.343,0,0,1,38.087,33.933ZM3.34,5.818a2.006,2.006,0,0,0-2,2V30.593a2.006,2.006,0,0,0,2,2H38.087a2.006,2.006,0,0,0,2-2V7.822a2.006,2.006,0,0,0-2-2Z" transform="translate(0 -4.482)" fill="#226f7c"/>
    <path id="Path_109" data-name="Path 109" d="M20.492,22.3a3.735,3.735,0,0,1-2.453-.884L.888,6.449a.668.668,0,1,1,.878-1.007L18.917,20.4a2.5,2.5,0,0,0,3.149,0L39.2,5.466a.668.668,0,1,1,.879,1.007L22.945,21.41A3.732,3.732,0,0,1,20.492,22.3Z" transform="translate(0.221 -4.214)" fill="#226f7c"/>
  </g>
</svg>
